#TidyTuesday Week 37: NYC Restaurant Inspections | Anecdotal Evidence
…
restaurants$cuisine_description[str_detect(restaurants$cuisine_description, "Latin")] <- "Latin" 

theme_set(theme_light())

Inspections per borough per year

There’s only data for the past couple of years (since 2011), but I started by looking at the number of inspections per borough per year. As mentioned above, each row in the data set corresponds to a violation uncovered during an inspection - so a single inspection of one restaurant might have multiple rows documenting multiple violations. For example:

restaurants %>% 
  filter(dba == "12 CHAIRS") %>%
  select(camis, dba, inspection_date, violation_code) %>%
  arrange(inspection_date)

## # A tibble: 35 x 4
##       camis dba       inspection_date violation_code
##       <int> <chr>     <date>          <chr>         
##  1 41006043 12 CHAIRS 2015-12-17      02B           
##  2 41006043 12 CHAIRS 2015-12-17      10F           
##  3 41006043 12 CHAIRS 2015-12-17      05D           
##  4 41006043 12 CHAIRS 2015-12-17      02G           
##  5 41006043 12 CHAIRS 2015-12-17      10B           
##  6 41006043 12 CHAIRS 2015-12-17      04J           
##  7 41006043 12 CHAIRS 2015-12-17      06C           
##  8 41006043 12 CHAIRS 2016-01-12      10F           
##  9 41006043 12 CHAIRS 2016-01-12      06C           
## 10 41006043 12 CHAIRS 2016-06-21      02H           
## # ... with 25 more rows
…
