#TidyTuesday 2019 Week 1: #Rstats Tweets | Anecdotal Evidence
…
I decided to only to plot the top 3 topics of conversation per week from 2018, and only label unique topics to help keep the plot a bit cleaner.

weekly_topics <- tidy_tweets %>%
  select(week, word) %>%
  count(week, word) %>%
  group_by(week) %>%
  top_n(n = 3, wt = n) %>%
  mutate(rank = order(order(n, decreasing=TRUE)))
  
weekly_topics$unique <- duplicated(weekly_topics$word) | duplicated(weekly_topics$word, fromLast = TRUE)

top_n(weekly_topics, 10)

## # A tibble: 159 x 5
## # Groups:   week [51]
##     week word              n  rank unique
##    <dbl> <chr>         <int> <int> <lgl> 
##  1     1 #ai              83     1 TRUE  
##  2     1 #iot             75     3 TRUE  
##  3     1 #tech            76     2 TRUE  
##  4     2 #iot             94     1 TRUE  
##  5     2 #tech            91     3 TRUE  
##  6     2 rbloggers        94     2 TRUE  
##  7     3 rbloggers        91     1 TRUE  
##  8     3 updates          84     2 TRUE  
##  9     3 version          83     3 TRUE  
## 10     4 #deeplearning    93     3 FALSE 
## # ... with 149 more rows
…
